…
\#Motivation Now that everything is installed and loaded, let’s jump
into the problem and the motivation for using approxmap. Let’s say you
have a dataset that looks like this:

    ## Warning in data("demo"): data set 'demo' not found

    ## # A tibble: 51,264 × 3
    ##       id period     event      
    ##    <int> <chr>      <chr>      
    ##  1     1 1993-07-01 training   
    ##  2     2 1993-07-01 joblessness
    ##  3     3 1993-07-01 joblessness
    ##  4     4 1993-07-01 training   
    ##  5     5 1993-07-01 joblessness
    ##  6     6 1993-07-01 joblessness
    ##  7     7 1993-07-01 joblessness
    ##  8     8 1993-07-01 employment 
    ##  9     9 1993-07-01 joblessness
    ## 10    10 1993-07-01 employment 
    ## # ℹ 51,254 more rows
…
Let us go through the sequence of steps involved in analyzing the mvad
dataset using approxmap. Please note that this version of approxmap only
supports unique items within an itemset.

\##General Instructions

1.  Any time you need more information on a particular function, you
    could, as always, use `?function_name` to get detailed help.
2.  The package uses the `%>%` operator (Ctrl/Cmd + Shift + M). This
    means you can move from one function to another seamlessly.

\##1. Aggregate the data For the algorithm to create sequences, it needs
data in the form:

    ## # A tibble: 350 × 3
    ##       id period event
    ##    <int>  <int> <int>
    ##  1     1      1    63
    ##  2     1      2    20
    ##  3     1      2    22
    ##  4     1      2    23
    ##  5     1      2    50
    ##  6     1      2    66
    ##  7     1      2    96
    ##  8     1      3    16
    ##  9     1      3    50
    ## 10     1      4    51
    ## # ℹ 340 more rows
…
The function also displays some useful statistics about the sequences.

``` r
mvad %>%
  aggregate_sequences(format = "%Y-%m-%d", unit = "month", n_units = 1)
```

    ## # A tibble: 51,264 × 5
    ## # Groups:   id [712]
    ##       id date       event       n_ndays agg_n_ndays
    ##    <int> <date>     <chr>         <dbl>       <dbl>
    ##  1     1 1993-07-01 training          0           1
    ##  2     2 1993-07-01 joblessness       0           1
    ##  3     3 1993-07-01 joblessness       0           1
    ##  4     4 1993-07-01 training          0           1
    ##  5     5 1993-07-01 joblessness       0           1
    ##  6     6 1993-07-01 joblessness       0           1
    ##  7     7 1993-07-01 joblessness       0           1
    ##  8     8 1993-07-01 employment        0           1
    ##  9     9 1993-07-01 joblessness       0           1
    ## 10    10 1993-07-01 employment        0           1
    ## # ℹ 51,254 more rows
…
    ## 6 joblessness         0.192
    ## 
    ## Statistics for the number of sets per sequence:
    ##    Min. 1st Qu.  Median    Mean 3rd Qu.    Max. 
    ##      71      71      71      71      71      71 
    ## 
    ## Statistics for the number of items in a set:
    ##    Min. 1st Qu.  Median    Mean 3rd Qu.    Max. 
    ##       1       1       1       1       1       2 
    ## 
    ## Frequencies of items:
    ##    Min. 1st Qu.  Median    Mean 3rd Qu.    Max. 
    ##    4315    4574    5560    8426    7706   22456

    ## # A tibble: 50,558 × 3
    ## # Groups:   id, period, event [50,558]
    ##       id period event     
    ##    <int>  <int> <chr>     
    ##  1     1      1 training  
    ##  2     1      2 training  
    ##  3     1      3 employment
    ##  4     1      4 employment
    ##  5     1      5 employment
    ##  6     1      6 employment
    ##  7     1      7 training  
    ##  8     1      8 training  
    ##  9     1      9 employment
    ## 10     1     10 employment
    ## # ℹ 50,548 more rows
…
Since it is a heavy task, we have used caching to store the results.
What caching does is compares the aggregated dataframe to the one in
memory and if it is identical, then uses the previously computed results
to cluster. For turning caching off, use the parameter `use_cache=FALSE`

``` r
mvad %>%
  aggregate_sequences(format = "%Y-%m-%d", unit = "month", n_units = 3, summary_stats=FALSE) %>%
    cluster_knn(k = 15)
```

    ## # A tibble: 51,264 × 5
    ## # Groups:   id [712]
    ##       id date       event       n_ndays agg_n_ndays
    ##    <int> <date>     <chr>         <dbl>       <dbl>
    ##  1     1 1993-07-01 training          0           1
    ##  2     2 1993-07-01 joblessness       0           1
    ##  3     3 1993-07-01 joblessness       0           1
    ##  4     4 1993-07-01 training          0           1
    ##  5     5 1993-07-01 joblessness       0           1
    ##  6     6 1993-07-01 joblessness       0           1
    ##  7     7 1993-07-01 joblessness       0           1
    ##  8     8 1993-07-01 employment        0           1
    ##  9     9 1993-07-01 joblessness       0           1
    ## 10    10 1993-07-01 employment        0           1
    ## # ℹ 51,254 more rows
…
The `threshold` parameter is used to specify the specify the proportion
of sequeneces the item must have been present in.

``` r
mvad %>%
  aggregate_sequences(format = "%Y-%m-%d", unit = "month", n_units = 1, summary_stats=FALSE) %>%
    cluster_knn(k = 15) %>%
      filter_pattern(threshold = 0.3, pattern_name = "variation")
```

    ## # A tibble: 51,264 × 5
    ## # Groups:   id [712]
    ##       id date       event       n_ndays agg_n_ndays
    ##    <int> <date>     <chr>         <dbl>       <dbl>
    ##  1     1 1993-07-01 training          0           1
    ##  2     2 1993-07-01 joblessness       0           1
    ##  3     3 1993-07-01 joblessness       0           1
    ##  4     4 1993-07-01 training          0           1
    ##  5     5 1993-07-01 joblessness       0           1
    ##  6     6 1993-07-01 joblessness       0           1
    ##  7     7 1993-07-01 joblessness       0           1
    ##  8     8 1993-07-01 employment        0           1
    ##  9     9 1993-07-01 joblessness       0           1
    ## 10    10 1993-07-01 employment        0           1
    ## # ℹ 51,254 more rows
…
We can also chain multiple `filter_pattern()` functions to keep adding
patterns.

``` r
results <-
  mvad %>%
    aggregate_sequences(format = "%Y-%m-%d", unit = "month", n_units = 3, summary_stats=FALSE) %>%
      cluster_knn(k = 15) %>%
        filter_pattern(threshold = 0.3, pattern_name = "variation") %>%
          filter_pattern(threshold = 0.4, pattern_name = "consensus")
```

    ## # A tibble: 51,264 × 5
    ## # Groups:   id [712]
    ##       id date       event       n_ndays agg_n_ndays
    ##    <int> <date>     <chr>         <dbl>       <dbl>
    ##  1     1 1993-07-01 training          0           1
    ##  2     2 1993-07-01 joblessness       0           1
    ##  3     3 1993-07-01 joblessness       0           1
    ##  4     4 1993-07-01 training          0           1
    ##  5     5 1993-07-01 joblessness       0           1
    ##  6     6 1993-07-01 joblessness       0           1
    ##  7     7 1993-07-01 joblessness       0           1
    ##  8     8 1993-07-01 employment        0           1
    ##  9     9 1993-07-01 joblessness       0           1
    ## 10    10 1993-07-01 employment        0           1
    ## # ℹ 51,254 more rows
…
``` r
(approxmap_results <-
  mvad %>%
    aggregate_sequences(format = "%Y-%m-%d", unit = "month", n_units = 3, summary_stats=FALSE) %>%
      cluster_knn(k = 15) %>%
        filter_pattern(threshold = 0.3, pattern_name = "variation") %>%
          filter_pattern(threshold = 0.4, pattern_name = "consensus") %>%
            format_sequence(compare=TRUE))%>%
            kable()
```

    ## # A tibble: 51,264 × 5
    ## # Groups:   id [712]
    ##       id date       event       n_ndays agg_n_ndays
    ##    <int> <date>     <chr>         <dbl>       <dbl>
    ##  1     1 1993-07-01 training          0           1
    ##  2     2 1993-07-01 joblessness       0           1
    ##  3     3 1993-07-01 joblessness       0           1
    ##  4     4 1993-07-01 training          0           1
    ##  5     5 1993-07-01 joblessness       0           1
    ##  6     6 1993-07-01 joblessness       0           1
    ##  7     7 1993-07-01 joblessness       0           1
    ##  8     8 1993-07-01 employment        0           1
    ##  9     9 1993-07-01 joblessness       0           1
    ## 10    10 1993-07-01 employment        0           1
    ## # ℹ 51,254 more rows
…
\#Using `tidyverse` to fully exploit approxmapR The output is what is
called as a tibble (a supercharged dataframe) that makes it possible to
do things like storing a list of tibbles (df_sequences) in a column. To
inspect the say the first 2 rows, we can use standard `dplyr` commands.

``` r
df_sequences <-
  mvad %>%
  aggregate_sequences(format = "%Y-%m-%d", unit = "month", n_units = 1, summary_stats=FALSE) %>%
    cluster_knn(k = 15) %>%
      top_n(2) %>%
        pull(df_sequences)
```

    ## # A tibble: 51,264 × 5
    ## # Groups:   id [712]
    ##       id date       event       n_ndays agg_n_ndays
    ##    <int> <date>     <chr>         <dbl>       <dbl>
    ##  1     1 1993-07-01 training          0           1
    ##  2     2 1993-07-01 joblessness       0           1
    ##  3     3 1993-07-01 joblessness       0           1
    ##  4     4 1993-07-01 training          0           1
    ##  5     5 1993-07-01 joblessness       0           1
    ##  6     6 1993-07-01 joblessness       0           1
    ##  7     7 1993-07-01 joblessness       0           1
    ##  8     8 1993-07-01 employment        0           1
    ##  9     9 1993-07-01 joblessness       0           1
    ## 10    10 1993-07-01 employment        0           1
    ## # ℹ 51,254 more rows
…
    ## Clustering based on density...

    ## Resolving ties...

    ## ----------Done Clustering----------

    ## Selecting by n

``` r
df_sequences
```

    ## [[1]]
    ## # A tibble: 303 × 2
    ##       id sequence       
    ##    <int> <Sqnc_Lst>     
    ##  1    26 <Sequence [71]>
    ##  2    68 <Sequence [71]>
    ##  3   116 <Sequence [71]>
    ##  4   120 <Sequence [71]>
    ##  5   150 <Sequence [71]>
    ##  6   169 <Sequence [71]>
    ##  7   201 <Sequence [71]>
    ##  8   202 <Sequence [71]>
    ##  9   213 <Sequence [71]>
    ## 10   237 <Sequence [71]>
    ## # ℹ 293 more rows
    ## 
    ## [[2]]
    ## # A tibble: 106 × 2
    ##       id sequence       
    ##    <int> <Sqnc_Lst>     
    ##  1   128 <Sequence [71]>
    ##  2   419 <Sequence [71]>
    ##  3   443 <Sequence [71]>
    ##  4   672 <Sequence [71]>
    ##  5   599 <Sequence [71]>
    ##  6    60 <Sequence [71]>
    ##  7   321 <Sequence [71]>
    ##  8   322 <Sequence [71]>
    ##  9   386 <Sequence [71]>
    ## 10   420 <Sequence [71]>
    ## # ℹ 96 more rows

To explore these sequences, we also have tidy print methods. The
functional programming toolkit for R, `purrr` provides an efficient
means to fully exploit such outputs.

``` r
df_sequences %>%
          map(function(df_cluster){
            df_cluster %>%
              mutate(sequence = map_chr(sequence, format_sequence))
          })
```

    ## [[1]]
    ## # A tibble: 303 × 2
    ##       id sequence                                                               
    ##    <int> <chr>                                                                  
    ##  1    26 <(employment) (employment) (employment) (employment) (employment) (emp…
    ##  2    68 <(employment) (employment) (employment) (employment) (employment) (emp…
    ##  3   116 <(employment) (employment) (employment) (employment) (employment) (emp…
    ##  4   120 <(employment) (employment) (employment) (employment) (employment) (emp…
    ##  5   150 <(employment) (employment) (employment) (employment) (employment) (emp…
    ##  6   169 <(employment) (employment) (employment) (employment) (employment) (emp…
    ##  7   201 <(employment) (employment) (employment) (employment) (employment) (emp…
    ##  8   202 <(employment) (employment) (employment) (employment) (employment) (emp…
    ##  9   213 <(employment) (employment) (employment) (employment) (employment) (emp…
    ## 10   237 <(employment) (employment) (employment) (employment) (employment) (emp…
    ## # ℹ 293 more rows
    ## 
    ## [[2]]
    ## # A tibble: 106 × 2
    ##       id sequence                                                               
    ##    <int> <chr>                                                                  
    ##  1   128 <(training) (training) (training) (training) (training) (training) (tr…
    ##  2   419 <(training) (training) (training) (training) (training) (training) (tr…
    ##  3   443 <(training) (training) (training) (training) (training) (training) (tr…
    ##  4   672 <(training) (training) (training) (training) (training) (training) (tr…
    ##  5   599 <(training) (training) (training) (training) (training) (training) (tr…
    ##  6    60 <(training) (training) (training) (training) (training) (training) (tr…
    ##  7   321 <(training) (training) (training) (training) (training) (training) (tr…
    ##  8   322 <(training) (training) (training) (training) (training) (training) (tr…
    ##  9   386 <(training) (training) (training) (training) (training) (training) (tr…
    ## 10   420 <(training) (training) (training) (training) (training) (training) (tr…
    ## # ℹ 96 more rows
